{
	"info": {
		"_postman_id": "ddda0398-53e6-47e1-a6cf-d2dc600085d1",
		"name": "AiYO PPOB V3",
		"schema": "https://schema.getpostman.com/json/collection/v2.1.0/collection.json",
		"_exporter_id": "12565209"
	},
	"item": [
		{
			"name": "Authentication",
			"item": [
				{
					"name": "Get Token",
					"request": {
						"auth": {
							"type": "basic",
							"basic": [
								{
									"key": "password",
									"value": "admin",
									"type": "string"
								},
								{
									"key": "username",
									"value": "admin",
									"type": "string"
								}
							]
						},
						"method": "GET",
						"header": [],
						"url": {
							"raw": "{{HOST}}:{{PORT}}/api/auth/token",
							"host": [
								"{{HOST}}"
							],
							"port": "{{PORT}}",
							"path": [
								"api",
								"auth",
								"token"
							]
						}
					},
					"response": []
				}
			],
			"auth": {
				"type": "noauth"
			},
			"event": [
				{
					"listen": "prerequest",
					"script": {
						"type": "text/javascript",
						"exec": [
							""
						]
					}
				},
				{
					"listen": "test",
					"script": {
						"type": "text/javascript",
						"exec": [
							""
						]
					}
				}
			]
		},
		{
			"name": "Product Main",
			"item": [
				{
					"name": "Get All Product Main",
					"request": {
						"method": "GET",
						"header": [],
						"url": {
							"raw": "{{HOST}}:{{PORT}}/api/v3/product/main/jsqM8MUJ2Id3Jfl0DmjtIC6wU",
							"host": [
								"{{HOST}}"
							],
							"port": "{{PORT}}",
							"path": [
								"api",
								"v3",
								"product",
								"main",
								"jsqM8MUJ2Id3Jfl0DmjtIC6wU"
							]
						}
					},
					"response": [
						{
							"name": "Get All Product Main",
							"originalRequest": {
								"method": "GET",
								"header": [],
								"url": {
									"raw": "{{HOST}}:{{PORT}}/api/v3/product/main",
									"host": [
										"{{HOST}}"
									],
									"port": "{{PORT}}",
									"path": [
										"api",
										"v3",
										"product",
										"main"
									]
								}
							},
							"status": "OK",
							"code": 200,
							"_postman_previewlanguage": "json",
							"header": [
								{
									"key": "X-Powered-By",
									"value": "Express"
								},
								{
									"key": "Content-Type",
									"value": "application/json; charset=utf-8"
								},
								{
									"key": "Content-Length",
									"value": "677"
								},
								{
									"key": "ETag",
									"value": "W/\"2a5-ivWaliSXTQUEwva9OSUNFQVT5x8\""
								},
								{
									"key": "Date",
									"value": "Mon, 06 Feb 2023 12:16:01 GMT"
								},
								{
									"key": "Connection",
									"value": "keep-alive"
								},
								{
									"key": "Keep-Alive",
									"value": "timeout=5"
								}
							],
							"cookie": [],
							"body": "{\n    \"responseCode\": \"2000000\",\n    \"responseMessage\": {\n        \"ID\": \"Sukses\",\n        \"EN\": \"Success\"\n    },\n    \"responseData\": {\n        \"count\": 2,\n        \"rows\": [\n            {\n                \"productMainId\": \"jsqM8MUJ2Id3Jfl0DmjtIC6wU\",\n                \"productName\": \"Telkomsel Prabayar 5k\",\n                \"isActive\": true,\n                \"isSinglePayment\": true,\n                \"mandatoryFields\": {\n                    \"customerNo\": \"string\"\n                },\n                \"description\": \"Telkomsel Prabayar 5k\",\n                \"createTime\": \"2023-02-02T13:13:08.780Z\",\n                \"updateTime\": \"2023-02-02T13:13:08.780Z\"\n            },\n            {\n                \"productMainId\": \"jsqM8MUJ2Id3Jfl0DmjtIC6wp\",\n                \"productName\": \"Telkomsel Prabayar 5k\",\n                \"isActive\": true,\n                \"isSinglePayment\": true,\n                \"mandatoryFields\": {\n                    \"customerNo\": \"string\"\n                },\n                \"description\": \"Telkomsel Prabayar 5k\",\n                \"createTime\": \"2023-02-02T13:13:08.780Z\",\n                \"updateTime\": \"2023-02-02T13:13:08.780Z\"\n            }\n        ]\n    }\n}"
						}
					]
				},
				{
					"name": "Get Product Main Detail",
					"request": {
						"method": "GET",
						"header": [],
						"url": {
							"raw": "{{HOST}}:{{PORT}}/api/v3/product/main/jsqM8MUJ2Id3Jfl0DmjtIC6wU",
							"host": [
								"{{HOST}}"
							],
							"port": "{{PORT}}",
							"path": [
								"api",
								"v3",
								"product",
								"main",
								"jsqM8MUJ2Id3Jfl0DmjtIC6wU"
							]
						}
					},
					"response": [
						{
							"name": "Get Product Main Detail",
							"originalRequest": {
								"method": "GET",
								"header": [],
								"url": {
									"raw": "{{HOST}}:{{PORT}}/api/v3/product/main/jsqM8MUJ2Id3Jfl0DmjtIC6wU",
									"host": [
										"{{HOST}}"
									],
									"port": "{{PORT}}",
									"path": [
										"api",
										"v3",
										"product",
										"main",
										"jsqM8MUJ2Id3Jfl0DmjtIC6wU"
									]
								}
							},
							"status": "OK",
							"code": 200,
							"_postman_previewlanguage": "json",
							"header": [
								{
									"key": "X-Powered-By",
									"value": "Express"
								},
								{
									"key": "Content-Type",
									"value": "application/json; charset=utf-8"
								},
								{
									"key": "Content-Length",
									"value": "403"
								},
								{
									"key": "ETag",
									"value": "W/\"193-++KYaknmSfyoaVNu2gBYqw4g3YE\""
								},
								{
									"key": "Date",
									"value": "Mon, 06 Feb 2023 13:04:50 GMT"
								},
								{
									"key": "Connection",
									"value": "keep-alive"
								},
								{
									"key": "Keep-Alive",
									"value": "timeout=5"
								}
							],
							"cookie": [],
							"body": "{\n    \"responseCode\": \"2000000\",\n    \"responseMessage\": {\n        \"ID\": \"Sukses Mendapatkan Produk\",\n        \"EN\": \"Success Get Produk\"\n    },\n    \"responseData\": {\n        \"productMainId\": \"jsqM8MUJ2Id3Jfl0DmjtIC6wU\",\n        \"productName\": \"Telkomsel Prabayar 5k\",\n        \"isActive\": true,\n        \"isSinglePayment\": true,\n        \"mandatoryFields\": {\n            \"customerNo\": \"string\"\n        },\n        \"description\": \"Telkomsel Prabayar 5k\",\n        \"createTime\": \"2023-02-02T13:13:08.780Z\",\n        \"updateTime\": \"2023-02-02T13:13:08.780Z\"\n    }\n}"
						}
					]
				}
			]
		},
		{
			"name": "Product Channel",
			"item": [
				{
					"name": "Get All Product Channel",
					"request": {
						"method": "GET",
						"header": [],
						"url": {
							"raw": "{{HOST}}:{{PORT}}/api/v3/product/channel",
							"host": [
								"{{HOST}}"
							],
							"port": "{{PORT}}",
							"path": [
								"api",
								"v3",
								"product",
								"channel"
							]
						}
					},
					"response": [
						{
							"name": "Get All Product Channel",
							"originalRequest": {
								"method": "GET",
								"header": [],
								"url": {
									"raw": "{{HOST}}:{{PORT}}/api/v3/product/channel",
									"host": [
										"{{HOST}}"
									],
									"port": "{{PORT}}",
									"path": [
										"api",
										"v3",
										"product",
										"channel"
									]
								}
							},
							"status": "OK",
							"code": 200,
							"_postman_previewlanguage": "json",
							"header": [
								{
									"key": "X-Powered-By",
									"value": "Express"
								},
								{
									"key": "Content-Type",
									"value": "application/json; charset=utf-8"
								},
								{
									"key": "Content-Length",
									"value": "393"
								},
								{
									"key": "ETag",
									"value": "W/\"189-iQ9blmOenldI9cH89L4z2E/XIhk\""
								},
								{
									"key": "Date",
									"value": "Tue, 07 Feb 2023 16:18:43 GMT"
								},
								{
									"key": "Connection",
									"value": "keep-alive"
								},
								{
									"key": "Keep-Alive",
									"value": "timeout=5"
								}
							],
							"cookie": [],
							"body": "{\n    \"responseCode\": \"2000000\",\n    \"responseMessage\": {\n        \"ID\": \"Sukses Mendapatkan Produk Channel\",\n        \"EN\": \"Success Get Channel Product\"\n    },\n    \"responseData\": {\n        \"count\": 1,\n        \"rows\": [\n            {\n                \"productChannelsId\": \"VDKHqfdo1yKhOYpOItcLdcpKq\",\n                \"customProductId\": \"PRODUKTEST1\",\n                \"channelId\": \"Y1mjzlczx64SWqlUiSSKu7qS4\",\n                \"isActive\": true,\n                \"createTime\": \"2023-02-07T15:58:10.370Z\",\n                \"updateTime\": \"2023-02-07T15:58:10.370Z\",\n                \"priceConfig\": {}\n            }\n        ]\n    }\n}"
						}
					]
				},
				{
					"name": "Get Product Channel Detail",
					"request": {
						"method": "GET",
						"header": [],
						"url": {
							"raw": "{{HOST}}:{{PORT}}/api/v3/product/channel/VDKHqfdo1yKhOYpOItcLdcpKq",
							"host": [
								"{{HOST}}"
							],
							"port": "{{PORT}}",
							"path": [
								"api",
								"v3",
								"product",
								"channel",
								"VDKHqfdo1yKhOYpOItcLdcpKq"
							]
						}
					},
					"response": [
						{
							"name": "Get Product Channel Detail",
							"originalRequest": {
								"method": "GET",
								"header": [],
								"url": {
									"raw": "{{HOST}}:{{PORT}}/api/v3/product/channel/VDKHqfdo1yKhOYpOItcLdcpKq",
									"host": [
										"{{HOST}}"
									],
									"port": "{{PORT}}",
									"path": [
										"api",
										"v3",
										"product",
										"channel",
										"VDKHqfdo1yKhOYpOItcLdcpKq"
									]
								}
							},
							"status": "OK",
							"code": 200,
							"_postman_previewlanguage": "json",
							"header": [
								{
									"key": "X-Powered-By",
									"value": "Express"
								},
								{
									"key": "Content-Type",
									"value": "application/json; charset=utf-8"
								},
								{
									"key": "Content-Length",
									"value": "372"
								},
								{
									"key": "ETag",
									"value": "W/\"174-18kAEiHX1XtMNoO0zKR8j2qUdmA\""
								},
								{
									"key": "Date",
									"value": "Tue, 07 Feb 2023 16:34:52 GMT"
								},
								{
									"key": "Connection",
									"value": "keep-alive"
								},
								{
									"key": "Keep-Alive",
									"value": "timeout=5"
								}
							],
							"cookie": [],
							"body": "{\n    \"responseCode\": \"2000000\",\n    \"responseMessage\": {\n        \"ID\": \"Sukses Mendapatkan Produk Channel\",\n        \"EN\": \"Success Get Channel Product\"\n    },\n    \"responseData\": {\n        \"productChannelsId\": \"VDKHqfdo1yKhOYpOItcLdcpKq\",\n        \"customProductId\": \"PRODUKTEST1\",\n        \"channelId\": \"Y1mjzlczx64SWqlUiSSKu7qS4\",\n        \"isActive\": true,\n        \"createTime\": \"2023-02-07T15:58:10.370Z\",\n        \"updateTime\": \"2023-02-07T15:58:10.370Z\",\n        \"priceConfig\": []\n    }\n}"
						}
					]
				}
			]
		}
	],
	"auth": {
		"type": "bearer",
		"bearer": [
			{
				"key": "token",
				"value": "eyJhbGciOiJIUzI1NiIsInR5cCI6IkpXVCJ9.eyJ1c2VySWQiOiJTT1ExT1FoSUVRcXNwUmdKd2RqbllqUTQ5Iiwicm9sZSI6IlNVUEVSX0FETUlOIiwiaWF0IjoxNjc1NzgzNTg1LCJleHAiOjE2NzU3OTA3ODV9.3GU-Q0bKx3VqL9qHYwTi5FRe9BvsaiVVMHJ2f_xh2lg",
				"type": "string"
			}
		]
	},
	"event": [
		{
			"listen": "prerequest",
			"script": {
				"type": "text/javascript",
				"exec": [
					""
				]
			}
		},
		{
			"listen": "test",
			"script": {
				"type": "text/javascript",
				"exec": [
					""
				]
			}
		}
	]
}